{
  "project_info": {
    "project_number": "419807420010",
    "project_id": "heho-172706",
    "storage_bucket": "heho-172706.appspot.com"
  },
  "client": [
    {
      "client_info": {
        "mobilesdk_app_id": "1:419807420010:android:c35599a6674337fd91f413",
        "android_client_info": {
          "package_name": "com.g_creative.hepo_app"
        }
      },
      "oauth_client": [
        {
          "client_id": "419807420010-qoi5qcn85b0cipgrv39h75bfih1p2j9n.apps.googleusercontent.com",
          "client_type": 1,
          "android_info": {
            "package_name": "com.g_creative.hepo_app",
            "certificate_hash": "dde9ff2e813651f787fedbcad21dd06799e32f9d"
          }
        },
        {
          "client_id": "419807420010-v0bo954ujplbju6j0jpsodq4gkcfrhi6.apps.googleusercontent.com",
          "client_type": 1,
          "android_info": {
            "package_name": "com.g_creative.hepo_app",
            "certificate_hash": "20eb3f900c2eeb218019a63cc2d8f6e6ff984c05"
          }
        },
        {
          "client_id": "419807420010-ctefuog121uln9velp7l7jsv4ulk2dl8.apps.googleusercontent.com",
          "client_type": 3
        }
      ],
      "api_key": [
        {
          "current_key": "AIzaSyBPUleHZYeg5Ggr6IiFpvdsr1NtwFOhoAM"
        }
      ],
      "services": {
        "appinvite_service": {
          "other_platform_oauth_client": [
            {
              "client_id": "419807420010-ctefuog121uln9velp7l7jsv4ulk2dl8.apps.googleusercontent.com",
              "client_type": 3
            },
            {
              "client_id": "419807420010-38q5rumsm3tu2quatm278q9prm9f24br.apps.googleusercontent.com",
              "client_type": 2,
              "ios_info": {
                "bundle_id": "com.gcreative.hepoApp"
              }
            }
          ]
        }
      }
    }
  ],
  "configuration_version": "1"
}