<svg xmlns="http://www.w3.org/2000/svg" width="6.456" height="11" viewBox="0 0 6.456 11">
  <path id="Icon_awesome-angle-right" data-name="Icon awesome-angle-right" d="M7.009,9.083l-4.25,4.674a.7.7,0,0,1-1.059,0L.994,12.98a.88.88,0,0,1,0-1.165L4.006,8.5.994,5.189a.88.88,0,0,1,0-1.165l.7-.784a.7.7,0,0,1,1.059,0l4.25,4.674A.881.881,0,0,1,7.009,9.083Z" transform="translate(-0.773 -2.998)" fill="#555752"/>
</svg>
